16 A5: Solving nonlinear equations in 1d III – Math 5485
…
Therefore, for \psi > 2\pi, we have f(\psi) > 0 and, for \psi < 2\pi, we have f(\psi) < 0.

💻 Show numerically that the relaxation method converges for some choice of \lambda. What is the order of convergence of this method?

Answer.

Here is the the relaxation method applied to f with \lambda = 10: that is x_{n+1} = x_n - 10 f(x_n).

x = relaxation(f, 10., 6.) 
orderOfConvergence( x, 2π; α=1  )

┌───────────┬────────────────┬───────────┬─────────┬────────────┐

│ iteration │ absolute error │ log error │   alpha │ mu (α = 1) │

├───────────┼────────────────┼───────────┼─────────┼────────────┤

│       1.0 │       0.283185 │ -0.547929 │     NaN │        NaN │

│       2.0 │       0.245487 │ -0.609971 │ 1.11323 │   0.866878 │

│       3.0 │       0.220905 │ -0.655795 │ 1.07512 │   0.899862 │

│       4.0 │       0.202982 │ -0.692543 │ 1.05603 │   0.918867 │

│       5.0 │       0.189072 │ -0.723373 │ 1.04452 │   0.931472 │

│       6.0 │       0.177827 │ -0.750002 │ 1.03681 │   0.940526 │

│       7.0 │        0.16847 │ -0.773478 │  1.0313 │   0.947379 │

│       8.0 │       0.160512 │ -0.794493 │ 1.02717 │   0.952764 │

│       9.0 │       0.153628 │ -0.813529 │ 1.02396 │   0.957115 │

│      10.0 │       0.147592 │ -0.830936 │  1.0214 │    0.96071 │

│      11.0 │        0.14224 │ -0.846979 │ 1.01931 │   0.963734 │

│      12.0 │       0.137448 │ -0.861861 │ 1.01757 │   0.966314 │

│      13.0 │       0.133124 │ -0.875742 │ 1.01611 │   0.968543 │

│      14.0 │       0.129196 │ -0.888751 │ 1.01486 │   0.970489 │

│      15.0 │       0.125605 │ -0.900994 │ 1.01378 │   0.972204 │

│      16.0 │       0.122305 │ -0.912557 │ 1.01283 │   0.973726 │

│      17.0 │       0.119258 │ -0.923513 │ 1.01201 │   0.975088 │

│      18.0 │       0.116433 │ -0.933924 │ 1.01127 │   0.976313 │

│      19.0 │       0.113804 │ -0.943843 │ 1.01062 │   0.977421 │

│      20.0 │       0.111349 │ -0.953314 │ 1.01003 │   0.978428 │

│      21.0 │        0.10905 │ -0.962376 │ 1.00951 │   0.979348 │

│      22.0 │       0.106889 │ -0.971065 │ 1.00903 │   0.980192 │

│         ⋮ │              ⋮ │         ⋮ │       ⋮ │          ⋮ │

└───────────┴────────────────┴───────────┴─────────┴────────────┘

                                                  78 rows omitted
…
